\boolfalse {citerequest}\boolfalse {citetracker}\boolfalse {pagetracker}\boolfalse {backtracker}\relax 
\defcounter {refsection}{0}\relax 
\contentsline {section}{Problem}{2}{section*.1}
\defcounter {refsection}{0}\relax 
\contentsline {section}{Solution}{2}{section*.2}
\defcounter {refsection}{0}\relax 
\contentsline {subsection}{Encoder}{2}{subsection*.3}
\defcounter {refsection}{0}\relax 
\contentsline {subsection}{Decoder}{2}{subsection*.4}
\defcounter {refsection}{0}\relax 
\contentsline {section}{Implementation}{3}{section*.5}
\defcounter {refsection}{0}\relax 
\contentsline {section}{Analysis}{3}{section*.6}
\defcounter {refsection}{0}\relax 
\contentsline {subsection}{Theoretical}{3}{subsection*.7}
\defcounter {refsection}{0}\relax 
\contentsline {subsubsection}{Communication over a perfect channel}{3}{subsubsection*.8}
\defcounter {refsection}{0}\relax 
\contentsline {subsection}{Practical}{3}{subsection*.9}
